21MAP500 Coursework
…
##1.e

nasa_sea %>% 
  mutate(date = as_date(date)) ->nasa_sea #convert nasa_sea$date into date type instead of datetime type to be join with other later

nasa_temp %>% 
  full_join(nasa_ice, by = c("date" = "date"), keep = FALSE) %>% 
  full_join(nasa_sea, by = c("date" = "date"), keep = FALSE) %>%
  full_join(nasa_co2, by = c("date" = "date"), keep = FALSE) -> nasa #join all the tibble together and save in to "nasa" 

nasa

## # A tibble: 1,855 x 5
##    date        temp   ice   sea   co2
##    <date>     <dbl> <dbl> <dbl> <dbl>
##  1 1880-01-01 -0.16    NA    NA    NA
##  2 1881-01-01 -0.08    NA    NA    NA
##  3 1882-01-01 -0.1     NA    NA    NA
##  4 1883-01-01 -0.17    NA    NA    NA
##  5 1884-01-01 -0.28    NA    NA    NA
##  6 1885-01-01 -0.33    NA    NA    NA
##  7 1886-01-01 -0.31    NA    NA    NA
##  8 1887-01-01 -0.36    NA    NA    NA
##  9 1888-01-01 -0.17    NA    NA    NA
## 10 1889-01-01 -0.11    NA    NA    NA
## # ... with 1,845 more rows
…
read_table(here("data", "luthi_carbon_dioxide.txt"), skip = 773) %>%  #read in the file and skip the first 773 lines
  rename(CO2 = `CO2(ppmv)`) %>% #rename column name
  rename(yrbp = `Age(yrBP)`) -> historic_co2  # rename column name and save to new variable

## 
## -- Column specification --------------------------------------------------------
## cols(
##   `Age(yrBP)` = col_double(),
##   `CO2(ppmv)` = col_double()
## )

historic_co2 

## # A tibble: 1,096 x 2
##     yrbp   CO2
##    <dbl> <dbl>
##  1   137  280.
##  2   268  275.
##  3   279  278.
##  4   395  279.
##  5   404  282.
##  6   485  278.
##  7   559  281.
##  8   672  282.
##  9   754  280.
## 10   877  278.
## # ... with 1,086 more rows
…
historic_co2 %>% 
  mutate(yrbp = yrbp + 13) -> historic_co2_modified  #mutate the yrbp reference year to 2021 

nasa_co2 %>% 
  mutate(date = year(date)) %>% # retrieve the year of the date
  mutate(yrbp = 2021 - date) %>%  # mutate the yrbp reference year to 2021
  select(yrbp, co2) %>%  #select the columns we need 
  group_by(yrbp) %>%  #group yrbp for calculation
  summarise(co2 = mean(co2, na.rm = TRUE)) %>%  #average the "co2" column
  full_join(historic_co2_modified, by = c("yrbp" = "yrbp", "co2" = "CO2")) -> combined_co2  #join nasa_co2 tibble and historic_co2_modified tibble together as requested and save in to new variable combined_co2
 
combined_co2

## # A tibble: 1,160 x 2
##     yrbp   co2
##    <dbl> <dbl>
##  1     0  417.
##  2     1  414.
##  3     2  412.
##  4     3  409.
##  5     4  407.
##  6     5  404.
##  7     6  401.
##  8     7  399.
##  9     8  397.
## 10     9  394.
## # ... with 1,150 more rows
…
sea_ice_1  

## [1] "<?xml version=\"1.0\" encoding=\"UTF-8\"?>"                                                                                                                                                                                                                                                                                                                                                                                                                                                                                                                                                                                                                                                                      
## [2] "<Relationships xmlns=\"http://schemas.openxmlformats.org/package/2006/relationships\"><Relationship Id=\"rId1\" Type=\"http://schemas.openxmlformats.org/officeDocument/2006/relationships/officeDocument\" Target=\"xl/workbook.xml\"/><Relationship Id=\"rId2\" Type=\"http://schemas.openxmlformats.org/package/2006/relationships/metadata/core-properties\" Target=\"docProps/core.xml\"/><Relationship Id=\"rId3\" Type=\"http://schemas.openxmlformats.org/officeDocument/2006/relationships/extended-properties\" Target=\"docProps/app.xml\"/><Relationship Id=\"rId4\" Type=\"http://schemas.openxmlformats.org/officeDocument/2006/relationships/custom-properties\" Target=\"docProps/custom.xml\"/>"
## # A tibble: 16,104 x 4
##    month   day  year extent
##    <int> <int> <int>  <dbl>
##  1     1     1  1978   NA  
##  2     1     1  1979   NA  
##  3     1     1  1980   14.2
##  4     1     1  1981   14.3
##  5     1     1  1982   NA  
##  6     1     1  1983   14.3
##  7     1     1  1984   NA  
##  8     1     1  1985   NA  
##  9     1     1  1986   14.0
## 10     1     1  1987   NA  
## # ... with 16,094 more rows
…
## `summarise()` has grouped output by 'month'. You can override using the `.groups` argument.

monthly_avg_extent %>%   
  left_join(baseline, by = c("month" = "month")) %>%    #join two tibble together 
  mutate(proportion_baseline_extent = avg_month_extent / month_specific_baseline_extent) %>%   #calculate the "proportion baseline extent" as instructed 
  select(year, month, proportion_baseline_extent) -> sea_ice_2  #select the columns we need and save it to new variable 
  
sea_ice_2

## # A tibble: 528 x 3
## # Groups:   month [12]
##     year month proportion_baseline_extent
##    <int> <int>                      <dbl>
##  1  1978     1                    NaN    
##  2  1979     1                      1    
##  3  1980     1                      0.964
##  4  1981     1                      0.967
##  5  1982     1                      0.985
##  6  1983     1                      0.969
##  7  1984     1                      0.939
##  8  1985     1                      0.955
##  9  1986     1                      0.966
## 10  1987     1                      0.971
## # ... with 518 more rows
…
stop_search_1

##  [1] "\"Measure\",\"Time\",\"Time_type\",\"Ethnicity\",\"Ethnicity_type\",\"Legislation_type\",\"Geography\",\"Geography_type\",\"Number of stop and searches\",\"Total number of stop and search carried out in this year in this area (excluding cases where the ethnicity was unreported)\",\"Population by ethnicity\",\"Rate per 1,000 population by ethnicity\",\"Proportion of total stop and searches of this ethnicity in the financial year (excludes unreported)\",\"\""
##  [2] "\"Number of stops and searches carried out (excluding vehicle only searches)\",\"2006/07\",\"Financial year\",\"All\",\"All\",\"All\",\"All - excluding BTP\",\"Police Force Area\",\"1,037,735\",\"932,065\",\"56,075,912\",\"18.51\",\"N/A\",\"\""                                                                                                                                                                                                                         
##  [3] "\"Number of stops and searches carried out (excluding vehicle only searches)\",\"2007/08\",\"Financial year\",\"All\",\"All\",\"All\",\"All - excluding BTP\",\"Police Force Area\",\"1,214,693\",\"1,125,647\",\"56,075,912\",\"21.66\",\"N/A\",\"\""                                                                                                                                                                                                                       
##  [4] "\"Number of stops and searches carried out (excluding vehicle only searches)\",\"2008/09\",\"Financial year\",\"All\",\"All\",\"All\",\"All - excluding BTP\",\"Police Force Area\",\"1,495,379\",\"1,409,802\",\"56,075,912\",\"26.67\",\"N/A\",\"\""                                                                                                                                                                                                                       
##  [5] "\"Number of stops and searches carried out (excluding vehicle only searches)\",\"2009/10\",\"Financial year\",\"All\",\"All\",\"All\",\"All - excluding BTP\",\"Police Force Area\",\"1,345,334\",\"1,284,197\",\"56,075,912\",\"23.99\",\"N/A\",\"\""                                                                                                                                                                                                                       
##  [6] "\"Number of stops and searches carried out (excluding vehicle only searches)\",\"2009/10\",\"Financial year\",\"All\",\"All\",\"Section 1\",\"All - excluding BTP\",\"Police Force Area\",\"1,169,012\",\"1,284,197\",\"56,075,912\",\"20.85\",\"N/A\",\"\""                                                                                                                                                                                                                 
##  [7] "\"Number of stops and searches carried out (excluding vehicle only searches)\",\"2009/10\",\"Financial year\",\"All\",\"All\",\"Section 44/47a\",\"All - excluding BTP\",\"Police Force Area\",\"85,310\",\"1,284,197\",\"56,075,912\",\"1.83\",\"N/A\",\"\""                                                                                                                                                                                                                
##  [8] "\"Number of stops and searches carried out (excluding vehicle only searches)\",\"2009/10\",\"Financial year\",\"All\",\"All\",\"Section 60\",\"All - excluding BTP\",\"Police Force Area\",\"119,639\",\"1,284,197\",\"56,075,912\",\"2.13\",\"N/A\",\"\""                                                                                                                                                                                                                   
##  [9] "\"Number of stops and searches carried out (excluding vehicle only searches)\",\"2010/11\",\"Financial year\",\"All\",\"All\",\"All\",\"All - excluding BTP\",\"Police Force Area\",\"1,272,799\",\"1,220,198\",\"56,075,912\",\"22.7\",\"N/A\",\"\""                                                                                                                                                                                                                        
## [10] "\"Number of stops and searches carried out (excluding vehicle only searches)\",\"2010/11\",\"Financial year\",\"All\",\"All\",\"Section 1\",\"All - excluding BTP\",\"Police Force Area\",\"1,220,248\",\"1,220,198\",\"56,075,912\",\"21.76\",\"N/A\",\"\""                                                                                                                                                                                                                 
## # A tibble: 2,926 x 7
##    year    ethnicity legislation_type geography           stops population  rate
##    <chr>   <chr>     <chr>            <chr>               <dbl>      <dbl> <dbl>
##  1 2006/07 All       All              All - excluding B~ 1.04e6   56075912 18.5 
##  2 2007/08 All       All              All - excluding B~ 1.21e6   56075912 21.7 
##  3 2008/09 All       All              All - excluding B~ 1.50e6   56075912 26.7 
##  4 2009/10 All       All              All - excluding B~ 1.35e6   56075912 24.0 
##  5 2009/10 All       Section 1        All - excluding B~ 1.17e6   56075912 20.8 
##  6 2009/10 All       Section 44/47a   All - excluding B~ 8.53e4   56075912  1.83
##  7 2009/10 All       Section 60       All - excluding B~ 1.20e5   56075912  2.13
##  8 2010/11 All       All              All - excluding B~ 1.27e6   56075912 22.7 
##  9 2010/11 All       Section 1        All - excluding B~ 1.22e6   56075912 21.8 
## 10 2010/11 All       Section 44/47a   All - excluding B~ 8.93e3   56075912  0.17
## # ... with 2,916 more rows
…
## `summarise()` has grouped output by 'year', 'ethnicity', 'legislation_type'. You can override using the `.groups` argument.

stop_search_1 %>% 
  left_join(avg_rate_white, by = c("year" = "year", "legislation_type" = "legislation_type", "geography" =  "geography")) %>%  #join the "avg_rate_white" to "stop_search_1"
  rename(ethnicity = ethnicity.x) %>%   #rename column 
  mutate(relative_disparity = rate / rate_white) %>%   #calculate "relative_disparity" as instructed and create new column to save value
  select(!ethnicity.y) -> stop_search_2   #select only the columns we need and save to new variable

stop_search_2 

## # A tibble: 2,926 x 9
##    year    ethnicity legislation_type geography  stops population  rate rate_white
##    <chr>   <chr>     <chr>            <chr>      <dbl>      <dbl> <dbl>      <dbl>
##  1 2006/07 All       All              All - ex~ 1.04e6   56075912 18.5       14.4 
##  2 2007/08 All       All              All - ex~ 1.21e6   56075912 21.7       16.8 
##  3 2008/09 All       All              All - ex~ 1.50e6   56075912 26.7       19.7 
##  4 2009/10 All       All              All - ex~ 1.35e6   56075912 24.0       18.0 
##  5 2009/10 All       Section 1        All - ex~ 1.17e6   56075912 20.8       16.3 
##  6 2009/10 All       Section 44/47a   All - ex~ 8.53e4   56075912  1.83       1.26
##  7 2009/10 All       Section 60       All - ex~ 1.20e5   56075912  2.13       0.99
##  8 2010/11 All       All              All - ex~ 1.27e6   56075912 22.7       17   
##  9 2010/11 All       Section 1        All - ex~ 1.22e6   56075912 21.8       16.7 
## 10 2010/11 All       Section 44/47a   All - ex~ 8.93e3   56075912  0.17       0.12
## # ... with 2,916 more rows, and 1 more variable: relative_disparity <dbl>
…
